{
    "/assets/admin/js/core/app.js": "/assets/admin/js/core/app.js?id=ceeeb74de922d23d664c",
    "/assets/admin/css/laraspace.css": "/assets/admin/css/laraspace.css?id=ef53b1f46cb631710ca7",
    "/assets/front/css/front.css": "/assets/front/css/front.css?id=a5f38357f61fdb7777cc",
    "/assets/admin/js/core/plugins.js": "/assets/admin/js/core/plugins.js?id=2a5301f36249ec563d04",
    "/assets/front/js/plugins.js": "/assets/front/js/plugins.js?id=4dd7badbaee2e3bbacad"
}